{
	"info": {
		"_postman_id": "d2c0794e-690d-4db0-a713-15af9b39946b",
		"name": "starwars",
		"schema": "https://schema.getpostman.com/json/collection/v2.1.0/collection.json"
	},
	"item": [
		{
			"name": "adicionar planeta DB",
			"request": {
				"method": "POST",
				"header": [
					{
						"key": "Content-Type",
						"value": "application/json",
						"type": "text"
					}
				],
				"body": {
					"mode": "raw",
					"raw": "{\r\n    \"name\": \"Alderaan\",\r\n    \"climate\": \"temperate, tropical\",\r\n    \"terrain\": \"jungle, rainforests\"\r\n}"
				},
				"url": {
					"raw": "http://localhost:8091/starwars/db/planets/create",
					"protocol": "http",
					"host": [
						"localhost"
					],
					"port": "8091",
					"path": [
						"starwars",
						"db",
						"planets",
						"create"
					]
				}
			},
			"response": []
		},
		{
			"name": "listar planetas API",
			"request": {
				"method": "GET",
				"header": [],
				"url": {
					"raw": "http://localhost:8091/starwars/api/planets/all/2",
					"protocol": "http",
					"host": [
						"localhost"
					],
					"port": "8091",
					"path": [
						"starwars",
						"api",
						"planets",
						"all",
						"2"
					]
				}
			},
			"response": []
		},
		{
			"name": "listar planetas DB",
			"request": {
				"auth": {
					"type": "noauth"
				},
				"method": "GET",
				"header": [],
				"url": {
					"raw": "http://localhost:8091/starwars/db/planets/all",
					"protocol": "http",
					"host": [
						"localhost"
					],
					"port": "8091",
					"path": [
						"starwars",
						"db",
						"planets",
						"all"
					]
				}
			},
			"response": []
		},
		{
			"name": "buscar planeta por nome no DB",
			"protocolProfileBehavior": {
				"disableBodyPruning": true
			},
			"request": {
				"method": "GET",
				"header": [],
				"body": {
					"mode": "raw",
					"raw": ""
				},
				"url": {
					"raw": "http://localhost:8091/starwars/db/planets/name/Alderaan",
					"protocol": "http",
					"host": [
						"localhost"
					],
					"port": "8091",
					"path": [
						"starwars",
						"db",
						"planets",
						"name",
						"Alderaan"
					]
				}
			},
			"response": []
		},
		{
			"name": "buscar planeta por ID no DB",
			"protocolProfileBehavior": {
				"disableBodyPruning": true
			},
			"request": {
				"method": "GET",
				"header": [],
				"body": {
					"mode": "raw",
					"raw": "{\r\n    \"idPlanet\": 3,\r\n    \"name\": \"Dagobah\"\r\n}"
				},
				"url": {
					"raw": "http://localhost:8091/starwars/db/planets/60e10f9044c1ea60af09792d",
					"protocol": "http",
					"host": [
						"localhost"
					],
					"port": "8091",
					"path": [
						"starwars",
						"db",
						"planets",
						"60e10f9044c1ea60af09792d"
					]
				}
			},
			"response": []
		},
		{
			"name": "remover planeta DB",
			"request": {
				"method": "DELETE",
				"header": [
					{
						"key": "Content-Type",
						"value": "application/json",
						"type": "text"
					}
				],
				"body": {
					"mode": "raw",
					"raw": ""
				},
				"url": {
					"raw": "http://localhost:8091/starwars/db/planets/60e1f00e8208fc3363cf7010",
					"protocol": "http",
					"host": [
						"localhost"
					],
					"port": "8091",
					"path": [
						"starwars",
						"db",
						"planets",
						"60e1f00e8208fc3363cf7010"
					]
				}
			},
			"response": []
		}
	]
}